6 Working with Categorical Predictors – Tidymodels Computing Supplement
…
If you are interested in which levels are combined, the tidy() method on the recipe can tell you.

6.6 Feature Hashing

Feature hashing converts qualitative predictors to a set of binary indicators based solely on the value of their category. It is most useful when many categories and/or novel levels might be encountered.

The recipe step is in the textrecipes package, so we must load it first2. The main arguments are num_terms and signed. The first sets the number of features to create, and when signed = TRUE, the indicators will have an appropriate sign attached to them (i.e., their values could be -1/0/1).

library(textrecipes)

recipe(avg_price_per_room ~ agent, data = hotel_rate_train) %>% 
  step_dummy_hash(agent, num_terms = 4) %>% 
  prep() %>% 
  bake(new_data = NULL, contains("agent")) 
#> # A tibble: 11,551 × 4
#>   dummyhash_agent_1 dummyhash_agent_2 dummyhash_agent_3 dummyhash_agent_4
#>               <int>             <int>             <int>             <int>
#> 1                 0                 1                 0                 0
#> 2                 0                 0                -1                 0
#> 3                 0                 1                 0                 0
#> 4                 0                 1                 0                 0
#> 5                 0                 1                 0                 0
#> 6                 0                 0                 0                 1
#> # ℹ 11,545 more rows
…
To see the actual effect estimates, use the tidy() method:

tidy(encoded_agent_rec, id = "effect")
#> # A tibble: 123 × 4
#>   level            value terms id    
#>   <chr>            <dbl> <chr> <chr> 
#> 1 aaron_marquez    92.22 agent effect
#> 2 alexander_drake 120.1  agent effect
#> 3 allen_her        73.70 agent effect
#> 4 anas_el_bashir   80.41 agent effect
#> 5 araseli_billy    66.91 agent effect
#> 6 arhab_al_islam   51.15 agent effect
#> # ℹ 117 more rows

# The estimate for new agents:
tidy(encoded_agent_rec, id = "effect") %>% 
  slice_tail(n = 1)
#> # A tibble: 1 × 4
#>   level value terms id    
#>   <chr> <dbl> <chr> <chr> 
#> 1 ..new 75.36 agent effect

When the recipe is applied to new data, the agent column is converted to a numeric column with these values:

bake(encoded_agent_rec, hotel_rate_test) %>% 
  bind_cols(hotel_rate_test %>% select(original_col = agent))
#> # A tibble: 3,851 × 3
#>    agent avg_price_per_room original_col        
#>    <dbl>              <dbl> <fct>               
#> 1 106.9                 100 devin_rivera_borrego
#> 2 106.9                  60 devin_rivera_borrego
#> 3  76.38                 45 not_applicable      
#> 4 106.9                  82 devin_rivera_borrego
#> 5  76.38                 47 not_applicable      
#> 6  76.38                 60 not_applicable      
#> # ℹ 3,845 more rows
…
The step converts 122 unique values of agent in the training set to a smaller set of 12 categories. To see the conversion key, use the tidy() methods:

tidy(collapse_agent_rec, id = "collapse")
#> # A tibble: 122 × 4
#>   terms old               new      id      
#>   <chr> <chr>             <chr>    <chr>   
#> 1 agent araseli_billy     agent_01 collapse
#> 2 agent arhab_al_islam    agent_01 collapse
#> 3 agent brayan_guerrero   agent_01 collapse
#> 4 agent daifallah_el_sami agent_01 collapse
#> 5 agent dante_merritt     agent_01 collapse
#> 6 agent derrick_barger    agent_01 collapse
#> # ℹ 116 more rows

tidy(collapse_agent_rec, id = "collapse") %>% 
  count(new)
#> # A tibble: 12 × 2
#>   new          n
#>   <chr>    <int>
#> 1 agent_01    17
#> 2 agent_02    14
#> 3 agent_03    14
#> 4 agent_04    10
#> 5 agent_05     7
#> 6 agent_06    13
#> # ℹ 6 more rows
…
