15 Characterizing Classification Models – Tidymodels Computing Supplement
…
The n column above represents the number of performance estimates, not the size of the data used to compute the estimate. For example, for 10-fold cross-validation, we would see n = 10.

Let’s also extract the out-of-sample predictions:

val_pred <- collect_predictions(nb_res)
val_pred
#> # A tibble: 6,107 × 7
#>   .pred_class .pred_poisonous .pred_edible id          .row class     .config       
#>   <fct>                 <dbl>        <dbl> <chr>      <int> <fct>     <chr>         
#> 1 edible               0.3330       0.6670 validation 42749 poisonous Preprocessor1…
#> 2 edible               0.2938       0.7062 validation 42750 poisonous Preprocessor1…
#> 3 edible               0.4178       0.5822 validation 42751 poisonous Preprocessor1…
#> 4 edible               0.1938       0.8062 validation 42752 poisonous Preprocessor1…
#> 5 edible               0.1763       0.8237 validation 42753 poisonous Preprocessor1…
#> 6 edible               0.2634       0.7366 validation 42754 poisonous Preprocessor1…
#> # ℹ 6,101 more rows
…
This is probably a real improvement that has a very small effect on the results.

val_recal_pred <- 
  val_pred |> 
  cal_apply(beta_cal)
val_recal_pred
#> # A tibble: 6,107 × 7
#>   .pred_class .pred_poisonous .pred_edible id          .row class     .config       
#>   <fct>                 <dbl>        <dbl> <chr>      <int> <fct>     <chr>         
#> 1 edible               0.4035       0.5965 validation 42749 poisonous Preprocessor1…
#> 2 edible               0.3731       0.6269 validation 42750 poisonous Preprocessor1…
#> 3 edible               0.4665       0.5335 validation 42751 poisonous Preprocessor1…
#> 4 edible               0.2892       0.7108 validation 42752 poisonous Preprocessor1…
#> 5 edible               0.2730       0.7270 validation 42753 poisonous Preprocessor1…
#> 6 edible               0.3487       0.6513 validation 42754 poisonous Preprocessor1…
#> # ℹ 6,101 more rows
15.10 Ordered Categories

R has a specialized factor class called ordered() that can be used to model ordered categories. To demonstrate, let’s load the Wordle predictions from the main text that we produced by a RuleFit model:

"https://github.com/aml4td/website/raw/refs/heads/main/RData/wordle_results.RData" |> 
  url() |> 
  load()

# Note the "<" in the printed output:
head(rule_oob_pred$tries)
#> [1] 3 2 2 3 3 3
#> Levels: 2 < 3 < 4 < 5 < 6 < X

rule_oob_pred |> dplyr::select(tries, starts_with(".pred_"))
#> # A tibble: 349 × 8
#>   tries .pred_class  .pred_2 .pred_3 .pred_4 .pred_5  .pred_6  .pred_X
#>   <ord> <ord>          <dbl>   <dbl>   <dbl>   <dbl>    <dbl>    <dbl>
#> 1 3     4           0.03401   0.2861 0.3586  0.3059  0.008807 0.006547
#> 2 2     4           0.1713    0.2252 0.3818  0.07616 0.1391   0.006457
#> 3 2     3           0.06700   0.4750 0.3218  0.1079  0.01726  0.01099 
#> 4 3     3           0.01119   0.5492 0.07538 0.04194 0.3195   0.002724
#> 5 3     3           0.007882  0.6209 0.07477 0.05872 0.2343   0.003451
#> 6 3     4           0.04769   0.1140 0.7410  0.07764 0.01267  0.007019
#> # ℹ 343 more rows
…
cart_spec <- 
  decision_tree(cost_complexity = tune(), min_n = tune()) |> 
  set_mode("classification")

cart_res <-
  cart_spec %>%
  tune_grid(
    class ~ .,
    resamples = shroom_rs,
    metrics = cls_mtr,
    grid = 25
  )

collect_metrics(cart_res)
#> # A tibble: 100 × 8
#>   cost_complexity min_n .metric     .estimator     mean     n std_err .config       
#>             <dbl> <int> <chr>       <chr>         <dbl> <int>   <dbl> <chr>         
#> 1       1    e-10    24 brier_class binary     0.003260     1      NA Preprocessor1…
#> 2       1    e-10    24 mn_log_loss binary     0.03056      1      NA Preprocessor1…
#> 3       1    e-10    24 pr_auc      binary     0.9994       1      NA Preprocessor1…
#> 4       1    e-10    24 roc_auc     binary     0.9991       1      NA Preprocessor1…
#> 5       2.371e-10    13 brier_class binary     0.002105     1      NA Preprocessor1…
#> 6       2.371e-10    13 mn_log_loss binary     0.03122      1      NA Preprocessor1…
#> # ℹ 94 more rows
…
