14 Comparing Models – Tidymodels Computing Supplement
…
# Loads the training and test set data
load(url("https://github.com/aml4td/website/raw/refs/heads/main/RData/forested_data.RData"))

# Load information needed for interactions:
load(url("https://github.com/aml4td/website/raw/refs/heads/main/RData/forested_interactions.RData"))

The first file contains these relevant objects:

forested_split
#> <Training/Testing/Total>
#> <4832/1371/6203>

forested_train
#> # A tibble: 4,832 × 17
#>   class  year elevation eastness northness roughness dew_temp precip_annual
#> * <fct> <dbl>     <dbl>    <dbl>     <dbl>     <dbl>    <dbl>         <dbl>
#> 1 Yes    2005       113      -25        96        30     6.4           1710
#> 2 No     2005       164      -84        53        13     6.06          1297
#> 3 Yes    2005       299       93        34         6     4.43          2545
#> 4 Yes    2005       806       47       -88        35     1.06           609
#> 5 Yes    2005       736      -27       -96        53     1.35           539
#> 6 Yes    2005       636      -48        87         3     1.42           702
#> # ℹ 4,826 more rows
#> # ℹ 9 more variables: temp_annual_mean <dbl>, temp_annual_min <dbl>,
#> #   temp_annual_max <dbl>, temp_january_min <dbl>, vapor_min <dbl>,
#> #   vapor_max <dbl>, county <fct>, longitude <dbl>, latitude <dbl>

forested_test
#> # A tibble: 1,371 × 17
#>   class  year elevation eastness northness roughness dew_temp precip_annual
#> * <fct> <dbl>     <dbl>    <dbl>     <dbl>     <dbl>    <dbl>         <dbl>
#> 1 No     2014       308      -70       -70         4     3.07           233
#> 2 No     2014       119       94        31         2     3.74           200
#> 3 No     2014       795      -74        66        39     0.17           255
#> 4 Yes    2014      1825       99        -9        78    -3.37          1241
#> 5 No     2014       126       83       -55         6     4.08           234
#> 6 Yes    2014      1056       99         7        57    -1.6            557
#> # ℹ 1,365 more rows
#> # ℹ 9 more variables: temp_annual_mean <dbl>, temp_annual_min <dbl>,
#> #   temp_annual_max <dbl>, temp_january_min <dbl>, vapor_min <dbl>,
#> #   vapor_max <dbl>, county <fct>, longitude <dbl>, latitude <dbl>

forested_rs
#> # A tibble: 10 × 2
#>   splits             id    
#>   <list>             <chr> 
#> 1 <split [4127/489]> Fold01
#> 2 <split [4080/491]> Fold02
#> 3 <split [4074/505]> Fold03
#> 4 <split [4185/434]> Fold04
#> 5 <split [4116/475]> Fold05
#> 6 <split [4049/523]> Fold06
#> # ℹ 4 more rows
…
We’ll see the advantage of this in a later section.

14.5 Resampled Data Sets

Let’s collect the accuracy values for each resample and model into a data frame. We’ll make a “wide” version with three columns for each of the three models and a “long” version where there is a column for each model and another for the accuracies. We call the column with the model pipeline.

We’ll also plot the data to show that it is similar to the one in the main text.

accuracy_df <- 
  boost_metrics |> 
  full_join(logistic_metrics, by = "id") |> 
  full_join(nb_metrics, by = "id") 
accuracy_df
#> # A tibble: 10 × 4
#>   id     Boosting Logistic `Naive Bayes`
#>   <chr>     <dbl>    <dbl>         <dbl>
#> 1 Fold01   0.8671   0.8773        0.8057
#> 2 Fold02   0.8900   0.8839        0.8310
#> 3 Fold03   0.9485   0.9505        0.9386
#> 4 Fold04   0.8687   0.8848        0.8618
#> 5 Fold05   0.8589   0.8653        0.8547
#> 6 Fold06   0.8776   0.8413        0.7820
#> # ℹ 4 more rows
  
accuracy_long_df <- 
  accuracy_df |> 
  pivot_longer(cols = c(-id), names_to = "pipeline", values_to = "accuracy")
accuracy_long_df
#> # A tibble: 30 × 3
#>   id     pipeline    accuracy
#>   <chr>  <chr>          <dbl>
#> 1 Fold01 Boosting      0.8671
#> 2 Fold01 Logistic      0.8773
#> 3 Fold01 Naive Bayes   0.8057
#> 4 Fold02 Boosting      0.8900
#> 5 Fold02 Logistic      0.8839
#> 6 Fold02 Naive Bayes   0.8310
#> # ℹ 24 more rows
…
Again, due to differences in random numbers, the accuracy numbers are slightly different. Consequently, the p-values are also different in value but not in interpretation.

14.5.2.1 Post Hoc Pairwise Comparisons and Protecting Against False Positive Findings

To compute the Bonferroni or FDR adjustments, we can use the stats::p.adjust() package. However, for the FDR, there are many alternatives. In CRAN alone:

tools::CRAN_package_db() |> 
  as_tibble() |> 
  filter(grepl("(fdr)|(false discovery rate)", tolower(Description))) |> 
  mutate(Title = gsub("\n", "", Title)) |> 
  select(Package, Title)
#> # A tibble: 85 × 2
#>   Package             Title                                                         
#>   <chr>               <chr>                                                         
#> 1 adaptMT             Adaptive P-Value Thresholding for Multiple Hypothesis Testing…
#> 2 alpha.correction.bh Benjamini-Hochberg Alpha Correction                           
#> 3 APFr                Multiple Testing Approach using Average Power Function (APF) …
#> 4 ashr                Methods for Adaptive Shrinkage, using Empirical Bayes         
#> 5 bayefdr             Bayesian Estimation and Optimisation of Expected False Discov…
#> 6 BonEV               An Improved Multiple Testing Procedure for Controlling FalseD…
#> # ℹ 79 more rows
…
tidyposterior also has a tidy() method for obtaining a sample from the posterior that has been configured not to be in the format of the parameters but in terms of the model means.

set.seed(185)
basic_bayes_post <- 
  basic_bayes_mod |> 
  tidy()

basic_bayes_post
#> # Posterior samples of performance
#> # A tibble: 12,000 × 2
#>   model       posterior
#>   <chr>           <dbl>
#> 1 Boosting       0.8913
#> 2 Logistic       0.9014
#> 3 Naive Bayes    0.8676
#> 4 Boosting       0.9014
#> 5 Logistic       0.9074
#> 6 Naive Bayes    0.8636
#> # ℹ 11,994 more rows
…
To take a look at pairwise differences, there is tidyposterior::contrast_models(). This takes the objects produced by perf_mod() and two vector arguments of groups to compare. If these two group arguments are left to their defaults, all comparisons are used:

set.seed(185)
basic_bayes_diff_post <- 
  basic_bayes_mod |> 
  contrast_models()

basic_bayes_diff_post
#> # Posterior samples of performance differences
#> # A tibble: 12,000 × 4
#>   difference model_1  model_2  contrast             
#>        <dbl> <chr>    <chr>    <chr>                
#> 1 -0.01012   Boosting Logistic Boosting vs. Logistic
#> 2 -0.005995  Boosting Logistic Boosting vs. Logistic
#> 3 -0.005884  Boosting Logistic Boosting vs. Logistic
#> 4  0.0002408 Boosting Logistic Boosting vs. Logistic
#> 5  0.002266  Boosting Logistic Boosting vs. Logistic
#> 6  0.01333   Boosting Logistic Boosting vs. Logistic
#> # ℹ 11,994 more rows
…
To compute intervals on differences, there is no current interface. However, you can use the core functions to get the results. For example, we can join the predictions for different models by their row number:

paired_class_pred <- 
  logistic_final_res |> 
  collect_predictions() |> 
  select(.row, class, logistic = .pred_class) |> 
  full_join(
    boost_final_res |> 
      collect_predictions() |> 
      select(.row, boosting = .pred_class),
    by = ".row"
  )
paired_class_pred
#> # A tibble: 1,371 × 4
#>    .row class logistic boosting
#>   <int> <fct> <fct>    <fct>   
#> 1  4833 No    No       No      
#> 2  4834 No    No       No      
#> 3  4835 No    No       No      
#> 4  4836 Yes   Yes      Yes     
#> 5  4837 No    No       No      
#> 6  4838 Yes   Yes      Yes     
#> # ℹ 1,365 more rows
…
