7 Embeddings – Tidymodels Computing Supplement
…
To further investigate the results, the tidy() method can extract elements of the computations. For example, you can return how variance each component captures using the argument type = "variance". Note that when the PCA recipe step was added, we used the option id = "pca". This is not required, but it makes it easier to specify what step the tidy() method should consider:

pca_scree <- tidy(barley_pca_rec, id = "pca", type = "variance")
pca_scree
#> # A tibble: 2,200 × 4
#>   terms       value component id   
#>   <chr>       <dbl>     <int> <chr>
#> 1 variance 507.5            1 pca  
#> 2 variance  35.84           2 pca  
#> 3 variance   3.395          3 pca  
#> 4 variance   1.511          4 pca  
#> 5 variance   0.6940         5 pca  
#> 6 variance   0.4265         6 pca  
#> # ℹ 2,194 more rows
…
Note that there are 550 entries for each since there are 550 predictor columns.

The default option for the tidy() method with PCA is to return the estimated loadings. This can help untangle which predictors influence the PCA components the most (or least).

pca_loadings <- tidy(barley_pca_rec, id = "pca")
pca_loadings
#> # A tibble: 302,500 × 4
#>   terms         value component id   
#>   <chr>         <dbl> <chr>     <chr>
#> 1 wvlgth_001 -0.01696 PC1       pca  
#> 2 wvlgth_002 -0.01704 PC1       pca  
#> 3 wvlgth_003 -0.01713 PC1       pca  
#> 4 wvlgth_004 -0.01723 PC1       pca  
#> 5 wvlgth_005 -0.01734 PC1       pca  
#> 6 wvlgth_006 -0.01748 PC1       pca  
#> # ℹ 302,494 more rows

There are 550^2 = 302500 possible loadings.

To get the component values for new data, such as the validation set, the bake() method can be used. Using new_data = NULL returns the training set points:

barley_pca_rec %>% 
  bake(new_data = NULL, starts_with("PC"))
#> # A tibble: 4,839 × 2
#>       PC1   PC2
#>     <dbl> <dbl>
#> 1  2.546  6.650
#> 2  0.1477 6.821
#> 3 -3.638  5.551
#> 4 -5.344  5.264
#> 5 -5.064  4.263
#> 6  8.857  8.426
#> # ℹ 4,833 more rows
…
7.3.2 Independent Component Analysis

An ICA recipe step can also be found in the recipes package. The syntax is virtually identical:

set.seed(538)
barley_ica_rec <-
  recipe(barley ~ ., data = barley_train) %>% 
  step_ica(all_numeric_predictors(), num_comp = 2, id = "ica") %>% 
  prep()

Similarly, the tidy() method returns the ICA loadings:

tidy(barley_ica_rec, id = "ica")
#> # A tibble: 1,100 × 4
#>   terms      component    value id   
#>   <chr>      <chr>        <dbl> <chr>
#> 1 wvlgth_001 IC1       -0.02197 ica  
#> 2 wvlgth_001 IC2        0.9340  ica  
#> 3 wvlgth_002 IC1       -0.02196 ica  
#> 4 wvlgth_002 IC2        0.9307  ica  
#> 5 wvlgth_003 IC1       -0.02196 ica  
#> 6 wvlgth_003 IC2        0.9270  ica  
#> # ℹ 1,094 more rows

Most other dimension reduction techniques (but not PCA and PLS) depend on random numbers. We’ll set them when needed, but it is worth pointing out that you will likely get different results each time you run them.

For example, when two ICA components are used, the results are not the same but close when using a different random number seed.

set.seed(955)
ica_redo <- 
  recipe(barley ~ ., data = barley_train) %>% 
  step_ica(all_numeric_predictors(), num_comp = 2, id = "ica") %>% 
  prep()

ica_redo %>% tidy(id = "ica")
#> # A tibble: 1,100 × 4
#>   terms      component    value id   
#>   <chr>      <chr>        <dbl> <chr>
#> 1 wvlgth_001 IC1        0.9341  ica  
#> 2 wvlgth_001 IC2       -0.01989 ica  
#> 3 wvlgth_002 IC1        0.9307  ica  
#> 4 wvlgth_002 IC2       -0.01989 ica  
#> 5 wvlgth_003 IC1        0.9270  ica  
#> 6 wvlgth_003 IC2       -0.01990 ica  
#> # ℹ 1,094 more rows
…
This might not cause a difference in performance when the features are used in a predictive model, but if the model uses slopes and intercepts, the parameter estimates will be different each time it is run.

7.3.3 Partial Least Squares

The syntax for PLS is also very similar. However, it is a supervised method, so we need to specify the column containing the outcome (the outcome column is not needed after model training). The code below uses dplyr::vars() to declare the column name, but a simple character string can also be used.

barley_pls_rec <-
  barley_rec %>%
  step_pls(all_numeric_predictors(), outcome = vars(barley), num_comp = 2,
           id = "pls") %>% 
  prep()

# Loadings: 
tidy(barley_pls_rec, id = "pls")
#> # A tibble: 1,100 × 4
#>   terms         value component id   
#>   <chr>         <dbl> <chr>     <chr>
#> 1 wvlgth_001 -0.05632 PLS1      pls  
#> 2 wvlgth_001 -0.1572  PLS2      pls  
#> 3 wvlgth_002 -0.05637 PLS1      pls  
#> 4 wvlgth_002 -0.1571  PLS2      pls  
#> 5 wvlgth_003 -0.05642 PLS1      pls  
#> 6 wvlgth_003 -0.1570  PLS2      pls  
#> # ℹ 1,094 more rows
…
Here’s an example of creating a recipe with the basic class distance computations:

centroid_rec <-
  recipe(Class ~ ., data = two_class_dat) %>%
  step_classdist(all_numeric_predictors(), class = "Class") %>% 
  prep()

The outcome argument is called "class" and takes a string value for the column name.

The processed data has a default naming convention of "classdist_{class level}" and you get one column per class:

bake(centroid_rec, new_data = NULL)
#> # A tibble: 791 × 5
#>       A     B Class  classdist_Class1 classdist_Class2
#>   <dbl> <dbl> <fct>             <dbl>            <dbl>
#> 1 2.070 1.632 Class1         -0.05795          -0.5526
#> 2 2.016 1.037 Class1         -1.026             1.647 
#> 3 1.689 1.367 Class2         -0.8454            0.2437
#> 4 3.435 1.980 Class2          1.367             1.678 
#> 5 2.885 1.976 Class1          0.9208            0.3913
#> 6 3.314 2.406 Class2          1.708             0.4739
#> # ℹ 785 more rows
…
