13 Feature Selection – Tidymodels Computing Supplement
…
As previously mentioned, trees produced by the rpart package have an internal importance score. To return this, let’s write a small function to pull the rpart object out, extract the importance scores, and then return a data frame with that data:

get_active_features <- function(x) {
  require(tidymodels)
  x %>% 
    extract_fit_engine() %>% 
    pluck("variable.importance") %>% 
    enframe() %>% 
    setNames(c("predictor", "importance"))
}

get_active_features(cart_drug_fit) 
#> # A tibble: 7 × 2
#>   predictor  importance
#>   <chr>           <dbl>
#> 1 l1lg_s         36.46 
#> 2 logp_c_hex      9.624
#> 3 fp_0048         9.091
#> 4 cw7             7.553
#> 5 w6              4.539
#> 6 vd              4.045
#> # ℹ 1 more row
…
Our results will have an extra column called .extract that contains the results for the resample. Since we didn’t tune this model, .extract contains a simple tibble with the results:

cart_drug_res$.extracts[[1]]
#> # A tibble: 1 × 2
#>   .extracts        .config             
#>   <list>           <chr>               
#> 1 <tibble [7 × 2]> Preprocessor1_Model1

cart_drug_res$.extracts[[1]]$.extracts
#> [[1]]
#> # A tibble: 7 × 2
#>   predictor  importance
#>   <chr>           <dbl>
#> 1 vd             35.40 
#> 2 logp_c_hex      9.001
#> 3 l1lg_s          7.934
#> 4 aus74           3.75 
#> 5 cw1             3.438
#> 6 fp_0027         3.048
#> # ℹ 1 more row
…
