11 Grid Search – Tidymodels Computing Supplement
…
Note that:

If we labeled any of our parameters (e.g., neighbors = tune("K")), that label is used as the column name.

Some parameters are associated with a transformation, and, by default, the values are created on that scale and then transformed back to the original units when the grid is returned.

The size argument should be considered the maximum size; redundant combinations are removed. For example:

# Default range is 0L to 9L:
cubist_rules(neighbors = tune("K")) %>% 
  extract_parameter_set_dials() %>%
  grid_space_filling(size = 50) %>% 
  arrange(K)
#> # A tibble: 10 × 1
#>       K
#>   <int>
#> 1     0
#> 2     1
#> 3     2
#> 4     3
#> 5     4
#> 6     5
#> # ℹ 4 more rows
…
cubist_res <- 
  cubist_spec %>% 
  tune_grid(
    compressive_strength ~ .,
    resamples = concrete_rs,
    grid = cubist_grid,
    control = control_grid(save_pred = TRUE, save_workflow = TRUE)
  )

The option to save the workflow for our model will be references below.

This object is similar to the one produced by fit_resamples except that the .metrics and .predictions columns have more rows since their values contain the results for the 25 candidates. We have our previous functions to rely on:

collect_metrics(cubist_res)
#> # A tibble: 50 × 8
#>   committees neighbors .metric .estimator   mean     n  std_err .config             
#>        <int>     <int> <chr>   <chr>       <dbl> <int>    <dbl> <chr>               
#> 1          1         4 rmse    standard   5.785     10 0.2373   Preprocessor1_Model…
#> 2          1         4 rsq     standard   0.8828    10 0.01024  Preprocessor1_Model…
#> 3          5         2 rmse    standard   5.004     10 0.2625   Preprocessor1_Model…
#> 4          5         2 rsq     standard   0.9103    10 0.009437 Preprocessor1_Model…
#> 5          9         7 rmse    standard   5.011     10 0.1992   Preprocessor1_Model…
#> 6          9         7 rsq     standard   0.9105    10 0.007576 Preprocessor1_Model…
#> # ℹ 44 more rows
collect_predictions(cubist_res)
#> # A tibble: 19,300 × 7
#>    .pred id      .row committees neighbors compressive_strength .config             
#>    <dbl> <chr>  <int>      <int>     <int>                <dbl> <chr>               
#> 1 41.63  Fold01     8          1         4                40.76 Preprocessor1_Model…
#> 2 29.84  Fold01    14          1         4                29.22 Preprocessor1_Model…
#> 3 37.52  Fold01    27          1         4                37.36 Preprocessor1_Model…
#> 4 24.99  Fold01    38          1         4                20.73 Preprocessor1_Model…
#> 5 62.37  Fold01    53          1         4                55.16 Preprocessor1_Model…
#> 6  9.835 Fold01    71          1         4                 9.74 Preprocessor1_Model…
#> # ℹ 19,294 more rows
…
