8 Interactions and Nonlinear Features – Tidymodels Computing Supplement
…
8.3 Polynomial Basis Expansions

There are two main functions that produce different types of orthogonal polynomials:

step_poly() wrapping stats::poly()

step_poly_bernstein() wrapping splines2::bernsteinPoly().

We can pass the columns of interest to each step:

recipe(time_to_delivery ~ ., data = delivery_train) %>% 
  step_poly(hour, degree = 4) %>% 
  prep() %>% 
  bake(new_data = NULL, starts_with("hour"))
#> # A tibble: 6,004 × 4
#>   hour_poly_1 hour_poly_2 hour_poly_3 hour_poly_4
#>         <dbl>       <dbl>       <dbl>       <dbl>
#> 1   -0.02318    0.02240     -0.01758     0.008000
#> 2    0.01558    0.01027     -0.003123   -0.01343 
#> 3    0.01105   -0.0003742   -0.01174    -0.01039 
#> 4   -0.002365  -0.01319      0.004819    0.01182 
#> 5   -0.01761    0.006275     0.009360   -0.01725 
#> 6   -0.02321    0.02249     -0.01777     0.008254
#> # ℹ 5,998 more rows

# or

recipe(time_to_delivery ~ ., data = delivery_train) %>% 
  step_poly_bernstein(hour, degree = 4) %>% 
  prep() %>% 
  bake(new_data = NULL, starts_with("hour"))
#> # A tibble: 6,004 × 4
#>    hour_1  hour_2   hour_3     hour_4
#>     <dbl>   <dbl>    <dbl>      <dbl>
#> 1 0.2593  0.03588 0.002207 0.00005090
#> 2 0.01665 0.1209  0.3899   0.4717    
#> 3 0.05106 0.2201  0.4216   0.3028    
#> 4 0.2658  0.3742  0.2342   0.05495   
#> 5 0.4047  0.1437  0.02267  0.001341  
#> 6 0.2582  0.03549 0.002169 0.00004969
#> # ℹ 5,998 more rows
…
8.4 Spline Functions

recipes has several spline steps:

apropos("step_spline")
#> [1] "step_spline_b"           "step_spline_convex"      "step_spline_monotone"   
#> [4] "step_spline_natural"     "step_spline_nonnegative"

The syntax is almost identical to the polynomial steps. For example, for natural splines:

recipe(time_to_delivery ~ ., data = delivery_train) %>% 
  step_spline_natural(hour, deg_free = 4) %>% 
  prep() %>% 
  bake(new_data = NULL, starts_with("hour"))
#> # A tibble: 6,004 × 4
#>   hour_1   hour_2  hour_3  hour_4
#>    <dbl>    <dbl>   <dbl>   <dbl>
#> 1 0.1970 0.004302 0       0      
#> 2 0      0.06326  0.4307  0.3122 
#> 3 0      0.2167   0.4816  0.2611 
#> 4 0.2030 0.6655   0.03618 0.01668
#> 5 0.3939 0.05003  0       0      
#> 6 0.1959 0.004225 0       0      
#> # ℹ 5,998 more rows
Some steps also have arguments for the spline degree called degree. Also, most basis expansion function steps have an option called options to pass additional specifications, such as a vector of knots.

8.5 Discretization

There is one step in recipes that conducts unsupervised binning called step_discretize() and the embed package has two for supervised methods: step_discretize_cart() and step_discretize_xgb().

For unsupervised binning:

basic_binning <- 
  recipe(time_to_delivery ~ ., data = delivery_train) %>% 
  step_discretize(hour, num_breaks = 4) %>% 
  prep()

bake(basic_binning, new_data = NULL, hour)
#> # A tibble: 6,004 × 1
#>   hour 
#>   <fct>
#> 1 bin1 
#> 2 bin4 
#> 3 bin4 
#> 4 bin2 
#> 5 bin1 
#> 6 bin1 
#> # ℹ 5,998 more rows
…
For supervised methods, the syntax is different in two ways. First, the outcome column is specified using the outcome argument. Secondly, additional parameters control the complexity of the results (i.e., the number of bins). These depend on the binning models. for CART binning, the arguments are cost_complexity, tree_depth, and min_n. They are different for the step that uses boosted trees.

The format of the results is very similar though:

library(embed)
cart_binning <-
  recipe(time_to_delivery ~ ., data = delivery_train) %>%
  step_discretize_cart(hour,
                       outcome = vars(time_to_delivery),
                       cost_complexity = 0.001) %>%
  prep()

bake(cart_binning, new_data = NULL, hour)
#> # A tibble: 6,004 × 1
#>   hour         
#>   <fct>        
#> 1 [-Inf,12.28) 
#> 2 [18.97,19.68)
#> 3 [16.63,18.97)
#> 4 [15.73,16.24)
#> 5 [12.28,13.23)
#> 6 [-Inf,12.28) 
#> # ℹ 5,998 more rows

tidy(cart_binning, number = 1)
#> # A tibble: 11 × 3
#>   terms value id                   
#>   <chr> <dbl> <chr>                
#> 1 hour  12.28 discretize_cart_ChWJu
#> 2 hour  13.23 discretize_cart_ChWJu
#> 3 hour  13.96 discretize_cart_ChWJu
#> 4 hour  14.77 discretize_cart_ChWJu
#> 5 hour  15.73 discretize_cart_ChWJu
#> 6 hour  16.24 discretize_cart_ChWJu
#> # ℹ 5 more rows
…
