Tidymodels Computing Supplement – 4 Transforming Numeric Predictors
…
Unsurprisingly, the step to compute the spatial sign is step_spatialsign(). It projects two or more numeric columns onto a multidimensional hypersphere. The resulting data has columns the same name as the input:

library(bestNormalize)

sp_sign_rec <- 
  recipe(Sale_Price ~ Lot_Area + Gr_Liv_Area, data = ames_train) %>% 
  step_YeoJohnson(any_of(c("Lot_Area", "Gr_Liv_Area"))) %>% 
  step_zv(all_predictors()) %>% 
  step_orderNorm(all_numeric_predictors()) %>% 
  step_spatialsign(all_numeric_predictors()) %>% 
  prep()

sp_sign_data <- bake(sp_sign_rec, new_data = NULL)
sp_sign_data
#> # A tibble: 2,196 × 3
#>   Lot_Area Gr_Liv_Area Sale_Price
#>      <dbl>       <dbl>      <dbl>
#> 1   0.4496     -0.8932      5.021
#> 2   0.2349     -0.9720      5.061
#> 3  -0.9012     -0.4334      4.982
#> 4  -0.9474     -0.3199      4.944
#> 5  -0.7424     -0.6700      5.079
#> 6   0.1537     -0.9881      4.829
#> # ℹ 2,190 more rows
…
