10 Measuring Performance with Resampling – Tidymodels Computing Supplement
…
10.6 V-Fold Cross-Validation

Basic V-fold cross-validation is performed using vfold_cv(). The v argument defines the number of folds and defaults to v = 10.

set.seed(380)
concrete_rs <- vfold_cv(concrete_tr)
concrete_rs
#> #  10-fold cross-validation 
#> # A tibble: 10 × 2
#>   splits           id    
#>   <list>           <chr> 
#> 1 <split [741/83]> Fold01
#> 2 <split [741/83]> Fold02
#> 3 <split [741/83]> Fold03
#> 4 <split [741/83]> Fold04
#> 5 <split [742/82]> Fold05
#> 6 <split [742/82]> Fold06
#> # ℹ 4 more rows

As with the other tools, the strata argument can balance the outcome distributions across folds. It takes a single column as input.

Another argument of note is repeats, which describes how many sets of V resamples should be created. This generated an additional column called id2:

set.seed(380)
concrete_rs <- vfold_cv(concrete_tr, repeats = 2)
concrete_rs
#> #  10-fold cross-validation repeated 2 times 
#> # A tibble: 20 × 3
#>   splits           id      id2   
#>   <list>           <chr>   <chr> 
#> 1 <split [741/83]> Repeat1 Fold01
#> 2 <split [741/83]> Repeat1 Fold02
#> 3 <split [741/83]> Repeat1 Fold03
#> 4 <split [741/83]> Repeat1 Fold04
#> 5 <split [742/82]> Repeat1 Fold05
#> 6 <split [742/82]> Repeat1 Fold06
#> # ℹ 14 more rows
…
    period = "day",   # Could be "year", "quarter", "month", "week", or "day"
    lookback = 5000,  # 5000 days in the analysis sets
    assess_start = 1, # Start the assessment set 1 day after analysis set
    assess_stop = 30, # Stop the assessment set 20 days after analysis set
    step = 30         # Jump ahead 30 days between resamples; no assessment overlap in assessments
  ) %>% 
  mutate(
    fit_start =  map_vec(splits, ~ min(analysis(.x)$date)),
    fit_stop =   map_vec(splits, ~ max(analysis(.x)$date)),
    perf_start = map_vec(splits, ~ min(assessment(.x)$date)),
    perf_stop =  map_vec(splits, ~ max(assessment(.x)$date))
  )
chi_rs
#> # Sliding period resampling 
#> # A tibble: 22 × 6
#>   splits            id      fit_start  fit_stop   perf_start perf_stop 
#>   <list>            <chr>   <date>     <date>     <date>     <date>    
#> 1 <split [5001/30]> Slice01 2001-01-22 2014-10-01 2014-10-02 2014-10-31
#> 2 <split [5001/30]> Slice02 2001-02-21 2014-10-31 2014-11-01 2014-11-30
#> 3 <split [5001/30]> Slice03 2001-03-23 2014-11-30 2014-12-01 2014-12-30
#> 4 <split [5001/30]> Slice04 2001-04-22 2014-12-30 2014-12-31 2015-01-29
#> 5 <split [5001/30]> Slice05 2001-05-22 2015-01-29 2015-01-30 2015-02-28
#> 6 <split [5001/30]> Slice06 2001-06-21 2015-02-28 2015-03-01 2015-03-30
#> # ℹ 16 more rows
…
    lookback = Inf,   # Use all data before assessment
    assess_start = 1,
    assess_stop = 30,
    step = 30,
    skip = 5000       # Drop first 5000 results so assessment starts at same time 
  ) %>% 
  mutate(
    fit_start =  map_vec(splits, ~ min(analysis(.x)$date)),
    fit_stop =   map_vec(splits, ~ max(analysis(.x)$date)),
    perf_start = map_vec(splits, ~ min(assessment(.x)$date)),
    perf_stop =  map_vec(splits, ~ max(assessment(.x)$date))
  )
chi_rs
#> # Sliding period resampling 
#> # A tibble: 22 × 6
#>   splits            id      fit_start  fit_stop   perf_start perf_stop 
#>   <list>            <chr>   <date>     <date>     <date>     <date>    
#> 1 <split [5001/30]> Slice01 2001-01-22 2014-10-01 2014-10-02 2014-10-31
#> 2 <split [5031/30]> Slice02 2001-01-22 2014-10-31 2014-11-01 2014-11-30
#> 3 <split [5061/30]> Slice03 2001-01-22 2014-11-30 2014-12-01 2014-12-30
#> 4 <split [5091/30]> Slice04 2001-01-22 2014-12-30 2014-12-31 2015-01-29
#> 5 <split [5121/30]> Slice05 2001-01-22 2015-01-29 2015-01-30 2015-02-28
#> 6 <split [5151/30]> Slice06 2001-01-22 2015-02-28 2015-03-01 2015-03-30
#> # ℹ 16 more rows
…
The options for resampling are basically the same as the initial split. For example, with block resampling, we create a grid on the training set and allocate specific grids to specific assessment sets. Buffering can also be used for each resample. The spatial_block_cv() function in the spatialsample package and has a v argument for the number of resamples:

set.seed(652)
ames_rs <-
  spatial_block_cv(
    ames_tr, 
    v = 10,
    method = "continuous",
    n = 25, 
    square = FALSE,
    buffer = 250)
ames_rs
#> #  10-fold spatial block cross-validation 
#> # A tibble: 10 × 2
#>   splits             id    
#>   <list>             <chr> 
#> 1 <split [1047/167]> Fold01
#> 2 <split [1098/182]> Fold02
#> 3 <split [1225/147]> Fold03
#> 4 <split [1130/174]> Fold04
#> 5 <split [1123/155]> Fold05
#> 6 <split [1235/95]>  Fold06
#> # ℹ 4 more rows
…
library(vctrs)

# Subjects in the training set: 
vec_unique_count(orth_tr$Subject)
#> [1] 18

set.seed(714)
orth_rs <- 
  group_vfold_cv(orth_tr, group = Subject, v = 10) %>% 
  mutate(num_subjects = map_int(splits, ~ vec_unique_count(assessment(.x)$Subject)))

orth_rs
#> # Group 10-fold cross-validation 
#> # A tibble: 10 × 3
#>   splits         id         num_subjects
#>   <list>         <chr>             <int>
#> 1 <split [64/8]> Resample01            2
#> 2 <split [64/8]> Resample02            2
#> 3 <split [64/8]> Resample03            2
#> 4 <split [64/8]> Resample04            2
#> 5 <split [64/8]> Resample05            2
#> 6 <split [64/8]> Resample06            2
#> # ℹ 4 more rows
…
The first two arguments can be a model specification and a preprocessor (in that order). The preprocessor could be a recipe or a standard R formula.

The first argument can be a workflow.

After the model specification, the resamples argument takes the resamping object.

From here, we can run fit_resamples(). Note that the Cubist model does not use any random numbers. If it did, we would probably want to set the random number seed before using fit_resamples().

Our code:

concrete_res <- fit_resamples(rules_spec, compressive_strength ~ ., resamples = concrete_rs)
concrete_res
#> # Resampling results
#> # 10-fold cross-validation 
#> # A tibble: 10 × 4
#>   splits           id     .metrics         .notes          
#>   <list>           <chr>  <list>           <list>          
#> 1 <split [694/78]> Fold01 <tibble [2 × 4]> <tibble [0 × 3]>
#> 2 <split [694/78]> Fold02 <tibble [2 × 4]> <tibble [0 × 3]>
#> 3 <split [695/77]> Fold03 <tibble [2 × 4]> <tibble [0 × 3]>
#> 4 <split [695/77]> Fold04 <tibble [2 × 4]> <tibble [0 × 3]>
#> 5 <split [695/77]> Fold05 <tibble [2 × 4]> <tibble [0 × 3]>
#> 6 <split [695/77]> Fold06 <tibble [2 × 4]> <tibble [0 × 3]>
#> # ℹ 4 more rows
This looks a lot like our resampling object. There are some new columns. .metrics contains data frames with performance statistics for the particular resample. The .notes column contains any warnings or error messages that the model produced; none were produced by these 10 model fits. Note that, if there are errors, fit_resamples() does not stop computations.

How can we get our performance estimates? To aggregate the data in this object, there is a set of collect_*() functions. The first is collect_metrics(). By default, it returns the averages of the resampled estimates:

collect_metrics(concrete_res)
#> # A tibble: 2 × 6
#>   .metric .estimator   mean     n std_err .config             
#>   <chr>   <chr>       <dbl> <int>   <dbl> <chr>               
#> 1 rmse    standard   6.503     10 0.2396  Preprocessor1_Model1
#> 2 rsq     standard   0.8517    10 0.01170 Preprocessor1_Model1

Note the n and std_err columns. To get the per-resample estimates:

collect_metrics(concrete_res, summarize = FALSE)
#> # A tibble: 20 × 5
#>   id     .metric .estimator .estimate .config             
#>   <chr>  <chr>   <chr>          <dbl> <chr>               
#> 1 Fold01 rmse    standard      6.764  Preprocessor1_Model1
#> 2 Fold01 rsq     standard      0.8462 Preprocessor1_Model1
#> 3 Fold02 rmse    standard      6.925  Preprocessor1_Model1
#> 4 Fold02 rsq     standard      0.8044 Preprocessor1_Model1
#> 5 Fold03 rmse    standard      6.652  Preprocessor1_Model1
#> 6 Fold03 rsq     standard      0.8298 Preprocessor1_Model1
#> # ℹ 14 more rows
…
Let’s re-run our model with these two changes:

reg_mtr <- metric_set(rmse, rsq, ccc, mae)

concrete_opts_res <- fit_resamples(
  rules_spec,
  compressive_strength ~ .,
  resamples = concrete_rs,
  metrics = reg_mtr,
  control = ctrl
)
concrete_opts_res
#> # Resampling results
#> # 10-fold cross-validation 
#> # A tibble: 10 × 5
#>   splits           id     .metrics         .notes           .predictions     
#>   <list>           <chr>  <list>           <list>           <list>           
#> 1 <split [694/78]> Fold01 <tibble [4 × 4]> <tibble [0 × 3]> <tibble [78 × 4]>
#> 2 <split [694/78]> Fold02 <tibble [4 × 4]> <tibble [0 × 3]> <tibble [78 × 4]>
#> 3 <split [695/77]> Fold03 <tibble [4 × 4]> <tibble [0 × 3]> <tibble [77 × 4]>
#> 4 <split [695/77]> Fold04 <tibble [4 × 4]> <tibble [0 × 3]> <tibble [77 × 4]>
#> 5 <split [695/77]> Fold05 <tibble [4 × 4]> <tibble [0 × 3]> <tibble [77 × 4]>
#> 6 <split [695/77]> Fold06 <tibble [4 × 4]> <tibble [0 × 3]> <tibble [77 × 4]>
#> # ℹ 4 more rows
…
Notice that there is now a column named .predictions. The number of rows in the tibbles matches the sizes of the assessment sets shown in the splits column; these are the held-out predicted values.

To obtain these values, there are collect_predictions() and augment():

heldout_pred <- collect_predictions(concrete_opts_res)
heldout_pred
#> # A tibble: 772 × 5
#>   .pred id      .row compressive_strength .config             
#>   <dbl> <chr>  <int>                <dbl> <chr>               
#> 1 40.56 Fold01     8                40.76 Preprocessor1_Model1
#> 2 29.34 Fold01    14                29.22 Preprocessor1_Model1
#> 3 32.65 Fold01    27                37.36 Preprocessor1_Model1
#> 4 24.10 Fold01    38                20.73 Preprocessor1_Model1
#> 5 61.61 Fold01    53                55.16 Preprocessor1_Model1
#> 6 12.30 Fold01    71                 9.74 Preprocessor1_Model1
#> # ℹ 766 more rows

# Same but merges them with the original training data
augment(concrete_opts_res)
#> # A tibble: 772 × 11
#>    .pred    .resid cement blast_furnace_slag fly_ash water superplasticizer
#>    <dbl>     <dbl>  <dbl>              <dbl>   <dbl> <dbl>            <dbl>
#> 1 45.54  -12.69     168                 42.1   163.8 121.8              5.7
#> 2 54.82   -1.131    190                190       0   228                0  
#> 3 32.77    0.07400  160                188     146   203               11  
#> 4  9.688   2.862    190.3                0     125.2 166.6              9.9
#> 5 47.36  -10.09     218.9                0     124.1 158.5             11.3
#> 6 16.93   -9.526    168.9               42.2   124.3 158.3             10.8
#> # ℹ 766 more rows
#> # ℹ 4 more variables: coarse_aggregate <dbl>, fine_aggregate <dbl>, age <int>,
#> #   compressive_strength <dbl>
…
Now we update our control object:

ctrl <- control_resamples(save_pred = TRUE, extract = extract_rules)

and pass it into fit_resamples():

concrete_ext_res <- fit_resamples(rules_spec,
                                  compressive_strength ~ .,
                                  resamples = concrete_rs,
                                  control = ctrl)
concrete_ext_res
#> # Resampling results
#> # 10-fold cross-validation 
#> # A tibble: 10 × 6
#>   splits           id     .metrics         .notes           .extracts .predictions
#>   <list>           <chr>  <list>           <list>           <list>    <list>      
#> 1 <split [694/78]> Fold01 <tibble [2 × 4]> <tibble [0 × 3]> <tibble>  <tibble>    
#> 2 <split [694/78]> Fold02 <tibble [2 × 4]> <tibble [0 × 3]> <tibble>  <tibble>    
#> 3 <split [695/77]> Fold03 <tibble [2 × 4]> <tibble [0 × 3]> <tibble>  <tibble>    
#> 4 <split [695/77]> Fold04 <tibble [2 × 4]> <tibble [0 × 3]> <tibble>  <tibble>    
#> 5 <split [695/77]> Fold05 <tibble [2 × 4]> <tibble [0 × 3]> <tibble>  <tibble>    
#> 6 <split [695/77]> Fold06 <tibble [2 × 4]> <tibble [0 × 3]> <tibble>  <tibble>    
#> # ℹ 4 more rows

The new output has an .extracts column. The rows contain a tibble that has the resampling information and another tibble, also with the name .extracts. We can pull that column out via:

rule_extract <- collect_extracts(concrete_ext_res)
rule_extract
#> # A tibble: 10 × 3
#>   id     .extracts         .config             
#>   <chr>  <list>            <chr>               
#> 1 Fold01 <tibble [10 × 5]> Preprocessor1_Model1
#> 2 Fold02 <tibble [13 × 5]> Preprocessor1_Model1
#> 3 Fold03 <tibble [13 × 5]> Preprocessor1_Model1
#> 4 Fold04 <tibble [11 × 5]> Preprocessor1_Model1
#> 5 Fold05 <tibble [13 × 5]> Preprocessor1_Model1
#> 6 Fold06 <tibble [13 × 5]> Preprocessor1_Model1
#> # ℹ 4 more rows

What is in a specific result?

rule_extract$.extracts[[1]]
#> # A tibble: 10 × 5
#>   committee rule_num rule                                         estimate statistic
#>       <int>    <int> <chr>                                        <list>   <list>   
#> 1         1        1 ( cement <= 218.89999 ) & ( blast_furnace_s… <tibble> <tibble> 
#> 2         1        2 ( cement <= 218.89999 ) & ( blast_furnace_s… <tibble> <tibble> 
#> 3         1        3 ( water > 183.8 ) & ( cement > 218.89999 ) … <tibble> <tibble> 
#> 4         1        4 ( age <= 7 ) & ( water <= 183.8 ) & ( blast… <tibble> <tibble> 
#> 5         1        5 ( age <= 28 ) & ( age > 7 ) & ( cement > 21… <tibble> <tibble> 
#> 6         1        6 ( age > 28 ) & ( superplasticizer <= 7.8000… <tibble> <tibble> 
#> # ℹ 4 more rows

To “flatten out” these results, we’ll unnest() the column of extracted results:

rule_extract <- 
  collect_extracts(concrete_ext_res) %>% 
  unnest(col = .extracts)
rule_extract
#> # A tibble: 124 × 7
#>   id     committee rule_num rule                          estimate statistic .config
#>   <chr>      <int>    <int> <chr>                         <list>   <list>    <chr>  
#> 1 Fold01         1        1 ( cement <= 218.89999 ) & ( … <tibble> <tibble>  Prepro…
#> 2 Fold01         1        2 ( cement <= 218.89999 ) & ( … <tibble> <tibble>  Prepro…
#> 3 Fold01         1        3 ( water > 183.8 ) & ( cement… <tibble> <tibble>  Prepro…
#> 4 Fold01         1        4 ( age <= 7 ) & ( water <= 18… <tibble> <tibble>  Prepro…
#> 5 Fold01         1        5 ( age <= 28 ) & ( age > 7 ) … <tibble> <tibble>  Prepro…
#> 6 Fold01         1        6 ( age > 28 ) & ( superplasti… <tibble> <tibble>  Prepro…
#> # ℹ 118 more rows
…
