Tidymodels Computing Supplement – 2 The Whole Game
…
When run in the training set:

time_ratios(delivery_train)
#> # A tibble: 27 × 2
#>   term    estimate
#>   <chr>      <dbl>
#> 1 item_01    1.074
#> 2 item_02    1.010
#> 3 item_03    1.010
#> 4 item_04    1.002
#> 5 item_05    1.005
#> 6 item_06    1.018
#> # ℹ 21 more rows
…
A tidymodels function called int_pctl() can take a collection of bootstrap samples of a data set, compute their statistics, and use the results to produce confidence intervals (we’ll use 90% intervals). To use it, we’ll resample the training set using the bootstraps() function and then use a mutate() to compute the fold differences.

We are using random numbers again, so let’s reset the seed3.

set.seed(624)
resampled_data <- 
  delivery_train %>% 
  select(time_to_delivery, starts_with("item")) %>% 
  # This takes a while to compute. The materials use 5000 bootstraps
  # but a smaller number is used here for demonstration.
  bootstraps(times = 1001) 

resampled_data
#> # Bootstrap sampling 
#> # A tibble: 1,001 × 2
#>   splits              id           
#>   <list>              <chr>        
#> 1 <split [6004/2227]> Bootstrap0001
#> 2 <split [6004/2197]> Bootstrap0002
#> 3 <split [6004/2156]> Bootstrap0003
#> 4 <split [6004/2210]> Bootstrap0004
#> 5 <split [6004/2208]> Bootstrap0005
#> 6 <split [6004/2227]> Bootstrap0006
#> # ℹ 995 more rows

The splits column contains the information on each bootstrap sample. To get a specific bootstrap sample, we can use the analysis(split_object) function on each element of the splits column. purrr::map() takes each split, extracts the bootstrap sample, then computes all of the ratios4.

resampled_ratios <- 
  resampled_data %>% 
  mutate(stats = map(splits, ~ time_ratios(analysis(.x))))

resampled_ratios
#> # Bootstrap sampling 
#> # A tibble: 1,001 × 3
#>   splits              id            stats            
#>   <list>              <chr>         <list>           
#> 1 <split [6004/2227]> Bootstrap0001 <tibble [27 × 2]>
#> 2 <split [6004/2197]> Bootstrap0002 <tibble [27 × 2]>
#> 3 <split [6004/2156]> Bootstrap0003 <tibble [27 × 2]>
#> 4 <split [6004/2210]> Bootstrap0004 <tibble [27 × 2]>
#> 5 <split [6004/2208]> Bootstrap0005 <tibble [27 × 2]>
#> 6 <split [6004/2227]> Bootstrap0006 <tibble [27 × 2]>
#> # ℹ 995 more rows

# An example: 
resampled_ratios$stats[[1]]
#> # A tibble: 27 × 2
#>   term    estimate
#>   <chr>      <dbl>
#> 1 item_01    1.070
#> 2 item_02    1.018
#> 3 item_03    1.008
#> 4 item_04    1.008
#> 5 item_05    1.017
#> 6 item_06    1.007
#> # ℹ 21 more rows

rsample::int_pctl() can consume these results and produce an interval for each item column5.

resampled_intervals <- 
  resampled_ratios %>% 
  int_pctl(stats, alpha = 0.1) 

resampled_intervals
#> # A tibble: 27 × 6
#>   term    .lower .estimate .upper .alpha .method   
#>   <chr>    <dbl>     <dbl>  <dbl>  <dbl> <chr>     
#> 1 item_01 1.052      1.075  1.097    0.1 percentile
#> 2 item_02 0.9950     1.009  1.024    0.1 percentile
#> 3 item_03 0.9940     1.009  1.024    0.1 percentile
#> 4 item_04 0.9879     1.002  1.016    0.1 percentile
#> 5 item_05 0.9884     1.005  1.021    0.1 percentile
#> 6 item_06 1.002      1.018  1.033    0.1 percentile
#> # ℹ 21 more rows
…
One helpful function is tidy(). It is designed to return the object results rationally, helpfully. In our case, the tidy() method for an lm object gives us a nice data frame back with information on the fitted coefficients:

tidy(lin_reg_fit)
#> # A tibble: 114 × 5
#>   term        estimate std.error statistic   p.value
#>   <chr>          <dbl>     <dbl>     <dbl>     <dbl>
#> 1 (Intercept)  13.34     1.585       8.420 4.664e-17
#> 2 item_01       1.244    0.1031     12.08  3.498e-33
#> 3 item_02       0.6461   0.06865     9.412 6.852e-21
#> 4 item_03       0.7313   0.06914    10.58  6.463e-26
#> 5 item_04       0.2820   0.06260     4.505 6.776e- 6
#> 6 item_05       0.5839   0.07871     7.418 1.360e-13
#> # ℹ 108 more rows
…
The benefit here is that there are a lot of helper functions to simplify your code. For example, to get the validation set MAE and predictions:

collect_metrics(lin_reg_res)
#> # A tibble: 1 × 6
#>   .metric .estimator  mean     n std_err .config             
#>   <chr>   <chr>      <dbl> <int>   <dbl> <chr>               
#> 1 mae     standard   1.609     1      NA Preprocessor1_Model1

collect_predictions(lin_reg_res)
#> # A tibble: 2,004 × 5
#>   .pred id          .row time_to_delivery .config             
#>   <dbl> <chr>      <int>            <dbl> <chr>               
#> 1 30.12 validation  6005            27.23 Preprocessor1_Model1
#> 2 23.02 validation  6006            22.10 Preprocessor1_Model1
#> 3 28.38 validation  6007            26.63 Preprocessor1_Model1
#> 4 31.04 validation  6008            30.84 Preprocessor1_Model1
#> 5 38.57 validation  6009            41.17 Preprocessor1_Model1
#> 6 27.04 validation  6010            27.04 Preprocessor1_Model1
#> # ℹ 1,998 more rows
…
The tidy() method is also helpful here. It contains all of the rules and corresponding regression models. Let’s get these values for the second rule in the fourth ensemble:

rule_details <- tidy(cb_fit)

rule_details %>% 
  filter(committee == 4 & rule_num == 2) %>% 
  pluck("rule")
#> [1] "( hour <= 14.946 ) & ( day  %in% c( 'Mon','Tue','Wed','Thu','Sun' ) ) & ( distance <= 4.52 )"

rule_details %>% 
  filter(committee == 4 & rule_num == 2) %>% 
  select(estimate) %>% 
  pluck(1) %>% 
  pluck(1)
#> # A tibble: 15 × 2
#>   term        estimate
#>   <chr>          <dbl>
#> 1 (Intercept)   -11.24
#> 2 hour            2.05
#> 3 distance        0.78
#> 4 item_01        -0.5 
#> 5 item_02         0.3 
#> 6 item_05         0.8 
#> # ℹ 9 more rows
…
We can pull out the elements we need from this object using some extract_*() and collect_*() functions. Here are a few:

# Test set metrics:
collect_metrics(lin_reg_test_res)
#> # A tibble: 1 × 4
#>   .metric .estimator .estimate .config             
#>   <chr>   <chr>          <dbl> <chr>               
#> 1 mae     standard       1.607 Preprocessor1_Model1

# Test set predictions: 
collect_predictions(lin_reg_test_res)
#> # A tibble: 2,004 × 5
#>   .pred id                .row time_to_delivery .config             
#>   <dbl> <chr>            <int>            <dbl> <chr>               
#> 1 15.98 train/test split     7            18.02 Preprocessor1_Model1
#> 2 16.03 train/test split    14            17.57 Preprocessor1_Model1
#> 3 27.60 train/test split    16            26.71 Preprocessor1_Model1
#> 4 17.15 train/test split    29            17.64 Preprocessor1_Model1
#> 5 32.24 train/test split    33            32.19 Preprocessor1_Model1
#> 6 20.18 train/test split    34            20.31 Preprocessor1_Model1
#> # ℹ 1,998 more rows
…
